﻿[
     {
        "_id":"c-101",
        "_parentId":"b-10",
        "_type":"component",
        "_component":"graphic",
        "_classes":"",
        "_layout":"left",
        "title":"İçerik Obje Başlığı",
        "displayTitle":"",
        "body":"",
        "instruction":"",
        "_graphic": {
            "alt": "alternatif metin",
            "large": "course/en/images/mobile.jpg",
            "attribution":""
        }
    },
    {
        "_id":"c-102",
        "_parentId":"b-10",
        "_type":"component",
        "_component":"text",
        "_classes":"",
        "_layout":"right",
        "title":"Kursa giriş",
        "displayTitle":"Kursa giriş",
        "body":"Platforma özel reklamlar, mobil uygulamanızın para kazandırma potansiyelini artırmanıza yardımcı olabilir. Bu kurs, platforma özel çekici ve etkili reklamlar yayınlamanız için size yardımcı olacak altyapıyı oluşturmaktadır. Platforma özel reklamların tanımını ve avantajlarını keşfedip uygulamaya yönelik rehberlik sağlayacağız. Oluşturmak için büyük emek harcadığınız tasarım ve kullanıcı deneyimini korurken gelirinizi artırmanıza yardımcı olabilecek platforma özel reklam alanları oluşturmanız için ilham verecek çeşitli örnekler de göstereceğiz. ",
            "instruction":"",
            "_pageLevelProgress": {
                "_isEnabled": true
            }
    },
    {
        "_id":"c-111",
        "_parentId":"b-11",
        "_type":"component",
        "_component":"graphic",
        "_classes":"",
        "_layout":"right",
        "title":"",
        "displayTitle":"",
        "body":"",
        "instruction":"",
        "_graphic": {
            "alt": "öğrenme hedefleri",
            "large": "course/en/images/learninggoals.jpg",
            "attribution":""
        }
    },
    {
        "_id":"c-112",
        "_parentId":"b-11",
        "_type":"component",
        "_component":"text",
        "_classes":"",
        "_layout":"left",
        "title":"Öğrenme hedefleri:",
        "displayTitle":"Öğrenme hedefleri:",
        "body":"Bu kurs şunları yapmanıza yardımcı olacak:<br><br><ul><li>Platforma özel reklamların tanımını, yapısını ve avantajlarını anlamak.</li><li>Uygulamalarınız için platforma özel reklam üniteleri tasarlamak.</li><li>Reklam kaynaklarını filtrelemek.</li><li>Platforma özel reklam API’sini kullanarak platforma özel şablonlar yüklemek.</li><li>Kullanıma yönelik temel en iyi uygulamaları anlamak.</li></ul>",
            "instruction":"",
            "_pageLevelProgress": {
                "_isEnabled": true
            }
    },
	{
        "_id":"c-121",
        "_parentId":"b-12",
        "_type":"component",
        "_component":"media",
        "_classes":"",
        "_layout":"full",
		"title": "Video: Audience Network",
        "displayTitle": "Video: Audience Network",
        "_setCompletionOn":"inview",
        "_useClosedCaptions":true,
        "_startLanguage":"en",
        "_media": {
            "mp4": "course/en/video/ANvideoexplainer2017.mp4",
            "poster": "course/en/video/ANvideoexplainer2017.png"
        },
        "_transcript": {
            "_setCompletionOnView":true,
            "_inlineTranscript": true,
            "_externalTranscript": false,
            "inlineTranscriptButton": "Video Metni",
            "inlineTranscriptCloseButton": "Video Metnini Kapat",
            "inlineTranscriptBody": "Facebook Audience Network, yayıncıların ve geliştiricilerin Facebook reklamverenlerine erişerek uygulamalarından para kazanmalarına yardımcı olur. Uygulama yayıncıları, güçlü ve insanlara dayalı pazarlama ile kullanıcılar için alakalı reklamlar yayınlarken reklamverenler için sonuçlara ulaşabilir.<br><br>Yüksek değerli, platforma özel reklam formatlarımız uygulamanızın tasarımına, yerleşimine ve akışına uyum sağlayan reklamlar yayınlamak için Facebook Haber Kaynağı’nda kullanılan aynı materyalleri ve hedeflemeyi kullanır.<br><br>Örneğin, haber ve hizmet uygulamalarındaki platforma özel reklamlar doğrudan içerik akışına entegre edilebilir. Oyunlarda ise, oyun deneyiminin içine dahil edilebilir.<br><br>Standart reklam bantlarından ortalama 7 kat daha iyi<sup>1</sup> performans gösteren platforma özel reklamlar, yayıncılara daha yüksek değer sunar. Her uygulama farklıdır, ancak en önemli unsur kullanıcı akışıdır.<br><br>Gerçekleştirdiğimiz araştırmalarda, insanların zihinleri keşif modundayken reklamlara dikkat ettiklerini gördük. Örneğin, bildirim sekmesine veya oyun merkezine bakma gibi, uygulamanın ana odak noktasında olmayan aktiviteler sırasında.<br><br>Dikkatin doğal olarak bozulduğu anları arayın. Örneğin, bir kişi belleği temizlemek gibi bir işlemi tamamladığında bir reklam gösterin. Uygulama akışı kesintiye uğradığında, insanların reklamı yok sayma olasılığı daha yüksektir. Örneğin, mesajlarını okumak isteyen bir kişiye reklam göstermeyin.<br><br>Platforma özel reklamlar kullanıma kolayca alınabilir ve daha yüksek etkileşim oranları ile hedef kitlenizin deneyimini iyileştirmeye yardımcı olabilir. Audience Network’te platforma özel reklamları kullanmaya başlamak kolaydır; tek gereken kolay bir SDK uygulama entegrasyonu yapmaktır.<br><br>Uygulamalarınıza kusursuz şekilde uymaları için reklam alanlarının görünümüne, boyutuna ve konumuna siz karar verirsiniz. Facebook’un insanlara dayalı pazarlaması ve reklamveren talebi ile, bir yandan hedef kitlenize alakalı reklamlar yayınlarken diğer yandan daha yüksek CPM’ler elde edebilirsiniz. Ayrıca, genel gelir potansiyelinizi en üst düzeye çıkarmak için devamlı olarak yüksek doluluk oranları sunmayı hedefleriz.<br><br>Daha fazla bilgi için internet sitemizi ziyaret edin: www.facebook.com/audiencenetwork<br><br><sup>1</sup><cite> Dahili Facebook verileri, Ağustos 2015</cite>",
            "transcriptLinkButton": "Video Metni",
            "transcriptLink": ""
        },
        "_playerOptions": {
            "poster": "",
            "showPosterWhenEnded": false,
            "defaultVideoWidth": 1280,
            "defaultVideoHeight": 720,
            "videoWidth": -1,
            "videoHeight": -1,
            "defaultAudioWidth": 400,
            "defaultAudioHeight": 30,
            "defaultSeekBackwardInterval": "(media.duration * 0.05)",
            "defaultSeekForwardInterval": "(media.duration * 0.05)",
            "audioWidth": -1,
            "audioHeight": -1,
            "startVolume": 0.8,
            "loop": false,
            "autoRewind": true,
            "enableAutosize": true,
            "alwaysShowHours": false,
            "showTimecodeFrameCount": false,
            "framesPerSecond": 25,
            "autosizeProgress" : true,
            "alwaysShowControls": false,
            "hideVideoControlsOnLoad": false,
            "clickToPlayPause": true,
            "iPadUseNativeControls": false,
            "iPhoneUseNativeControls": false,
            "AndroidUseNativeControls": false,
            "features": ["playpause","current","progress","duration","tracks","volume","fullscreen"],
            "isVideo": true,
            "enableKeyboard": true,
            "pauseOtherPlayers": true,
            "startLanguage": "",
            "tracksText": "mejs.i18n.t('Captions/Subtitles')",
            "hideCaptionsButtonWhenEmpty": true,
            "toggleCaptionsButtonWhenOnlyOne": false,
            "slidesSelector": ""
        }
    },
    {
        "_id":"c-131",
        "_parentId":"b-13",
        "_type":"component",
        "_component":"text",
        "_classes":"",
        "_layout":"full",
        "title":"Platforma özel reklam: tanım",
        "displayTitle":"Platforma özel reklam: tanım",
        "body":"<div style='float:left;padding-right:20px;'><img src='course/en/images/nativeexample.png'></div><strong>Platforma özel reklamlar</strong> göründüğü platformun görünümüne uyum sağlayan reklamlardır. Platforma özel reklamlar, genellikle bir makale veya video bağlantısı şeklinde olur ve etrafındaki içeriğe uyum sağlarken bir markanın veya ürünün tanıtımını yapar. Platforma özel reklamlarda, reklamveren içeriğinin platformdaki diğer medyayla bütünleşmesi söz konusudur. Ortamına uyum sağlayan bir reklam türüdür.<br><br>Radyo veya pod yayını dinlemiş herkes, platforma özel reklamların sesli versiyonunu duymuştur. Dil kullanımı, ses özellikleri ve genellikle sunucu da programın geri kalanıyla tutarlıdır. Filmler ve TV programlarında gördüğümüz, reklamverenin marka veya ürününün karakterler ve hikayeyle organik uyum sağladığı ürün yerleştirmeleri de platforma özel reklamlara benzetilebilir. İyi şekilde uygulandığında, platforma özel reklamlar genel kullanıcı deneyimine uyum sağlar ve müşterinin dikkat ve etkileşim gösterme olasılığını artırır.",
            "instruction":"",
            "_pageLevelProgress": {
                "_isEnabled": true
            }
    },
    {
        "_id":"c-141",
        "_parentId":"b-14",
        "_type":"component",
        "_component":"text",
        "_classes":"",
        "_layout":"full",
        "title":"Diğer formatlara kıyasla platforma özel reklamlar",
        "displayTitle":"Diğer formatlara kıyasla platforma özel reklamlar",
        "body":"Uygulama yayıncıları Audience Network sayesinde, kampanyalarını Facebook’un ötesine taşıyarak diğer mobil ortamlarda yayınlamak isteyen Facebook reklamverenlerinden oluşan geniş bir havuza erişebilir. Audience Network reklamları ara reklam, reklam bandı ve platforma özel reklam olmak üzere üç ayrı formatta yayınlanır. Platforma özel reklam, göründüğü uygulamanın görünümü, deneyimi ve/veya işlevine uyum sağlar.<br><br>Aşağıdaki örneklerde, bir Facebook reklamından alınan materyaller uygulamaya üç farklı formatta yerleştirilmiştir:",
            "instruction":"",
            "_pageLevelProgress": {
                "_isEnabled": true
            }
    },
    {
        "_id":"c-142",
        "_parentId":"b-14",
        "_type":"component",
        "_component":"canvas-animation",
        "_classes":"",
        "_layout":"full",
        "title":"",
        "displayTitle":"",
        "animationName":"Three_items",
        "animation":"course/en/animations/three_items/three_items.js",
        "body":"<div id='three_items'></div>",
        "_resources": {
            "textStyle_1":{"font":"24px freight-sans-pro","fill": "#000000","wordWrap": true,"wordWrapWidth":300,"align": "center","lineSpacing": 10 },
            "text_1":"\n\n\nAra reklam",
            "text_2":"\n\n\nReklam bandı",
            "text_3":"\n\n\nPlatforma özel reklam",
            "item_1":"course/en/animations/three_items/item_1.png",
            "item_2":"course/en/animations/three_items/item_2.png",
            "item_3":"course/en/animations/three_items/item_3.png"
            },
            "instruction":"",
            "_pageLevelProgress": {
            "_isEnabled": false
            }
    },
    {
        "_id":"c-151",
        "_parentId":"b-15",
        "_type":"component",
        "_component":"text",
        "_classes":"",
        "_layout":"full",
        "title":"",
        "displayTitle":"",
        "body":"Ara reklam ve reklam bandı reklam alanlarının para kazanma stratejinizde bir rolü olsa bile, uygulama yayıncıları için platforma özel format, kullanıcı deneyimini kesintiye uğratmadan daha çekici, etkileşimi teşvik eden ve esnek bir reklam alanı sunar.",
            "instruction":"",
            "_pageLevelProgress": {
                "_isEnabled": true
            }
    },
    {
        "_id":"c-161",
        "_parentId":"b-16",
        "_type":"component",
        "_component":"text",
        "_classes":"",
        "_layout":"full",
        "title":"",
        "displayTitle":"Platforma özel reklam örnekleri",
        "body":"Platforma özel reklamlar sayesinde uygulama tasarımcıları neredeyse sınırsız entegrasyon olasılığına sahip olurlar. Platforma özel formatlar, reklam ünitelerini yerleşim, stil, konum ve kullanıcı deneyimi açısından uygulamanız için en mantıklı şekilde özelleştirmenizi mümkün kılar. Reklam bandı ve ara reklamların aksine, platforma özel reklamlar deneyim kesintisini en aza indirecek ve etkileşimi en üst düzeye çıkaracak şekilde özelleştirilebilir. Sizin için birkaç örnek.",
            "instruction":"",
            "_pageLevelProgress": {
                "_isEnabled": true
            }
    },
    {
        "_id":"c-162",
        "_parentId":"b-16",
        "_type":"component",
        "_component":"canvas-animation",
        "_classes":"",
        "_layout":"full",
        "title":"",
        "displayTitle":"",
        "animationName":"three_items2",
        "animation":"course/en/animations/three_items2/three_items2.js",
        "body":"<div id='three_items2'></div>",
        "_resources": {
            "textStyle_1":{"font":"24px freight-sans-pro","fill": "#000000","wordWrap": true,"wordWrapWidth":300,"align": "center","lineSpacing": 10 },
            "text_1":"\n\n\n\n\nEasilyDo",
            "text_2":"\n\n\n\n\nShazam",
            "text_3":"\n\n\n\n\nHuffington Post",
            "item_1":"course/en/animations/three_items2/item_1.png",
            "item_2":"course/en/animations/three_items2/item_2.png",
            "item_3":"course/en/animations/three_items2/item_3.png"
            },
            "instruction":"",
            "_pageLevelProgress": {
            "_isEnabled": false
            }
    },
    {
        "_id": "c-191",
        "_parentId": "b-19",
        "_type": "component",
        "_component": "co-jump",
        "_classes": "color-test",
        "_preLinkBody": "Sıradaki bölüm: ",
        "_linkBody": "Platforma Özel Reklamların Avantajları",
        "_postLinkBody": ".",
        "_link": "#/id/co-20",
        "_graphic": "adapt/css/assets/icon_nextPage.png",
        "_pageLevelProgress": {
            "_isEnabled": false
        }
    },
	{
        "_id":"c-201",
        "_parentId":"b-20",
        "_type":"component",
        "_component":"media",
        "_classes":"",
        "_layout":"full",
		"title": "Video: Platforma özel reklamların avantajları",
        "displayTitle": "Video: Platforma özel reklamların avantajları",
        "_setCompletionOn":"inview",
        "_useClosedCaptions":true,
        "_startLanguage":"en",
        "_media": {
            "mp4": "course/en/video/benefits.mp4",
            "poster": "course/en/video/benefits.png"
        },
        "_transcript": {
            "_setCompletionOnView":true,
            "_inlineTranscript": true,
            "_externalTranscript": false,
            "inlineTranscriptButton": "Video Metni",
            "inlineTranscriptCloseButton": "Video Metnini Kapat",
            "inlineTranscriptBody": "Platforma özel reklam, bir Facebook reklamının ham bileşenlerini alır (görsel, metin, eylem çağrısı) ve bunları uygulama veya oyun içinde, ilgili uygulamanın tasarımına, yerleşimine ve akışına uyacak şekilde bir araya getirir. İyi şekilde uygulanan bir platforma özel reklam, bulunduğu yere ait olduğu hissini verir.<br><br>Platforma özel reklamlar, yayıncılar ve reklamverenler için çeşitli avantajlar sunar:<ul><li><strong>Değer:</strong> Yayıncılar için 2 kata kadar daha yüksek eCPM’ler, reklamverenler için de daha yüksek tıklama ve dönüşüm oranları.<sup>1</sup></li><li><strong>Kalite:</strong> Yayıncıların, uygulamalarında yayınlanan reklamlar için marka, içerik ve görünüm açısından yüksek kalite standartlarını korumasını sağlar.</li><li><strong>Alaka Düzeyi:</strong> İnsanlara dayalı, isabetli hedefleme sayesinde reklamverenler reklam envanterlerini kullanıcıları için alakalı reklamlarla doldurabilir.</li><li><strong>Etkileşim:</strong> Platforma özel reklamlar, kullanıcı deneyimine organik olarak reklamlar entegre ederek kullanıcıların etkileşimde kalmasını sağlar</li></ul><br>Sonuç olarak, platforma özel formatlar daha yüksek kaliteli, daha iyi görünen, daha etkili reklamlar anlamına gelir. Hem yayıncılar, hem reklamverenler, hem de müşteriler için fayda sunar.<br><br><sup>1</sup><cite>IHS araştırması, 2016</cite>",
            "transcriptLinkButton": "Video Metni",
            "transcriptLink": ""
        },
        "_playerOptions": {
            "poster": "",
            "showPosterWhenEnded": false,
            "defaultVideoWidth": 1280,
            "defaultVideoHeight": 720,
            "videoWidth": -1,
            "videoHeight": -1,
            "defaultAudioWidth": 400,
            "defaultAudioHeight": 30,
            "defaultSeekBackwardInterval": "(media.duration * 0.05)",
            "defaultSeekForwardInterval": "(media.duration * 0.05)",
            "audioWidth": -1,
            "audioHeight": -1,
            "startVolume": 0.8,
            "loop": false,
            "autoRewind": true,
            "enableAutosize": true,
            "alwaysShowHours": false,
            "showTimecodeFrameCount": false,
            "framesPerSecond": 25,
            "autosizeProgress" : true,
            "alwaysShowControls": false,
            "hideVideoControlsOnLoad": false,
            "clickToPlayPause": true,
            "iPadUseNativeControls": false,
            "iPhoneUseNativeControls": false,
            "AndroidUseNativeControls": false,
            "features": ["playpause","current","progress","duration","tracks","volume","fullscreen"],
            "isVideo": true,
            "enableKeyboard": true,
            "pauseOtherPlayers": true,
            "startLanguage": "",
            "tracksText": "mejs.i18n.t('Captions/Subtitles')",
            "hideCaptionsButtonWhenEmpty": true,
            "toggleCaptionsButtonWhenOnlyOne": false,
            "slidesSelector": ""
        }
    },
    {
        "_id":"c-211",
        "_parentId":"b-21",
        "_type":"component",
        "_component":"graphic",
        "_classes":"",
        "_layout":"left",
        "title":"İçerik Obje Başlığı",
        "displayTitle":"",
        "body":"",
        "instruction":"",
        "_graphic": {
            "alt": "alternatif metin",
            "large": "course/en/images/engaged.jpg",
            "attribution":""
        }
    },
    {
        "_id":"c-212",
        "_parentId":"b-21",
        "_type":"component",
        "_component":"text",
        "_classes":"",
        "_layout":"right",
        "title":"Bunun yayıncılar için anlamı nedir?",
        "displayTitle":"Bunun yayıncılar için anlamı nedir?",
        "body":"Platforma özel reklamlar, yayıncılar ve geliştiriciler için yeni bir para kazanma potansiyeli yaratabilir. Platforma özel reklamlar, envanteri küçük reklam bandı alanlarının veya açılır ekranların ötesine taşıyarak uygulamaların potansiyel değerini artırır. Uygulamanızın görünümünden, içeriğinden veya kullanıcı deneyiminden ödün vermeden özel reklam alanları oluşturun.<br><br>Platforma özel reklamlar, insana dayalı pazarlamanın gücünü kullanarak Facebook Audience Network aracılığıyla yayınlanır. Reklamverenler dönüşüm oranlarındaki değişimleri sadece çerezler veya uygulama kimliklerine değil gerçek insanlara dayalı olarak ölçebilecekleri için, yayıncılar reklam alanlarının değerini artırabilir. Daha iyi, kanıtlanmış sonuçlar sunan reklam alanları daha yüksek CPM’ler sağlar.<br><br>Sonuç olarak, platforma özel formatlar daha yüksek kaliteli, daha iyi görünen, daha etkili reklamlar anlamına gelir. Hem yayıncılar, hem reklamverenler, hem de müşteriler için fayda sunar.",
            "instruction":"",
            "_pageLevelProgress": {
                "_isEnabled": true
            }
    },
    {
    "_id":"c-221",
    "_parentId":"b-22",
    "_type":"component",
    "_component":"canvas-animation",
    "_classes":"",
    "_layout":"full",
    "title":"Mobilin hızlı yükselişi",
    "displayTitle":"Neden platforma özel reklamlar? Çünkü platforma özel reklamlar şunları sağlar...",
    "animationName":"Icon_animation",
    "animation":"course/en/animations/icon_animation/icon_animation.js",
    "body":"<div id='icon_animation'></div>",
    "_resources": {
        "textStyle_1":{"font":"18px freight-sans-pro","fill": "#000000","wordWrap": false,"wordWrapWidth":200,"align":"center","lineSpacing": -20 },
        "placeholder":"/icon_animation/placeholder.png",
        "icon_1":"course/en/animations/icon_animation/event_1.png",
        "icon_2":"course/en/animations/icon_animation/event_2.png",
        "icon_3":"course/en/animations/icon_animation/event_3.png",
        "text_1":"\n\n%60’a kadar \nDAHA FAZLA ETKİLEŞİM*",
        "text_2":"\n\n3 kata kadar \nDAHA YÜKSEK TUTMA ORANI**",
        "text_3":"\n\n2 kata kadar \nDAHA YÜKSEK eCPM’ler*"
        },
        "instruction":"",
        "_pageLevelProgress": {
        "_isEnabled": true
        }
    },
    {
        "_id":"c-231",
        "_parentId":"b-23",
        "_type":"component",
        "_component":"text",
        "_classes":"",
        "_layout":"full",
        "title":"kaynak",
        "displayTitle":"",
        "body":"<sup>*</sup><cite>Facebook Audience Network tarafından yaptırılan IHS Araştırması, Mart 2016<br><sup>**</sup>Facebook Dahili Verileri, 2016 4. Çeyrek</cite>",
            "instruction":"",
            "_pageLevelProgress": {
                "_isEnabled": true
            }
    },
    {
        "_id": "c-291",
        "_parentId": "b-29",
        "_type": "component",
        "_component": "co-jump",
        "_classes": "color-test",
        "_preLinkBody": "Sıradaki bölüm: ",
        "_linkBody": "Audience Network, Platforma Özel Reklamları Nasıl Yayınlar",
        "_postLinkBody": ".",
        "_link": "#/id/co-30",
        "_graphic": "adapt/css/assets/icon_nextPage.png",
        "_pageLevelProgress": {
            "_isEnabled": false
        }
    },
    {
        "_id":"c-301",
        "_parentId":"b-30",
        "_type":"component",
        "_component":"text",
        "_classes":"",
        "_layout":"left",
        "title":"Facebook reklamları uygulamanızda yayınlanır",
        "displayTitle":"Facebook reklamları uygulamanızda yayınlanır",
        "body":"Platforma özel reklamları oluşturmak için kullanılacak materyalleri Facebook reklamverenleri sağlar. Bu bileşenlerin yerleşimi, tasarımı ve stili size kalmıştır. Platforma özel reklamlar, uygulamanızın kullanıcı deneyiminin optimize edilmesi ile reklamveren materyallerinin bütünlüğünün korunmasını etkili şekilde dengede tutmalıdır.",
            "instruction":"",
            "_pageLevelProgress": {
                "_isEnabled": true
            }
    },
    {
        "_id":"c-302",
        "_parentId":"b-30",
        "_type":"component",
        "_component":"graphic",
        "_classes":"",
        "_layout":"right",
        "title":"İçerik Obje Başlığı",
        "displayTitle":"",
        "body":"",
        "instruction":"",
        "_graphic": {
            "alt": "alternatif metin",
            "large": "course/en/images/delivered.jpg",
            "attribution":""
        }
    },
    {
        "_id":"c-311",
        "_parentId":"b-31",
        "_type":"component",
        "_component":"text",
        "_classes":"",
        "_layout":"left",
        "title":"kaynak",
        "displayTitle":"",
        "body":"<h2>Zorunlu bileşenler</h2><br>Platforma özel reklam alanı için zorunlu bileşenler:<br><br><ul><li><strong>Reklam başlığı</strong></li><li><strong>Eylem Çağrısı düğmesi</strong></li><br>Aşağıdakilerin en az biri:<li><strong>AdChoices simgesi</strong><br>-veya-<br></li><li><strong>Sponsorlu etiketi</strong></li></ul><br>Gerekli bileşenlerin eklenmemesi halinde Facebook, reklam alanınızı devre dışı bırakabilir.",
            "instruction":"",
            "_pageLevelProgress": {
                "_isEnabled": true
            }
    },
    {
        "_id":"c-312",
        "_parentId":"b-31",
        "_type":"component",
        "_component":"text",
        "_classes":"",
        "_layout":"right",
        "title":"isteğe bağlı bileşenler",
        "displayTitle":"",
        "body":"<h2>İsteğe bağlı bileşenler</h2><br>Zorunlu olmamakla birlikte, çoğu durumda platforma özel reklamlarınızın aşağıdaki bileşenleri de içermesi gerekir:<br><br><ul><li><strong>Medya</strong></li><li><strong>Reklam simgesi</strong></li><li><strong>Reklam metni</strong></li><li><strong>Sosyal bağlam</strong></li></ul><br>Olumlu kullanıcı deneyimini koruyan çekici ve etkili reklamlar oluşturmanın kilit noktası, bu materyalleri uygulamanızla tutarlı olacak şekilde düzenleyip şekillendirmektir.",
            "instruction":"",
            "_pageLevelProgress": {
                "_isEnabled": true
            }
    },
	{
		"_id": "c-321",
		"_parentId": "b-32",
		"_type": "component",
		"_component": "narrative",
		"_classes": "",
		"_layout": "full",
		"_comment": "setCompletionOn = inview | allItems",
		"_setCompletionOn": "inview",
		"_hasNavigationInTextArea": false,
		"title": "Avantajları",
		"displayTitle": "Reklam materyalleri",
		"body": "Reklam materyallerinin platforma özel reklam örneğimizde nasıl göründüğünü keşfetmek için aşağıdaki görüntüleri kaydırarak inceleyin.",
		"mobileInstruction": "Daha fazla bilgi almak için okları seçin.",
		"_items": [
			{
				"title": "Mevcut materyaller",
				"body": "Burada, reklamverenin materyallerinin bir araya gelerek nasıl reklam oluşturduğunu görebilirsiniz. Bazı bileşenler zorunlu iken bazıları isteğe bağlıdır.",
				"_graphic": {
					"src": "course/en/images/nar.png",
					"alt": "Performansı her seviyede anlayın."
				},
				"strapline": "Performansı her seviyede anlayın."
			},
			{
				"title": "Reklam başlığı",
				"body": "Reklam başlığı zorunlu bir bileşendir ve 25 karakterden uzun olamaz.",
				"_graphic": {
					"src": "course/en/images/nar1.png",
					"alt": "Reklam başlığı"
				},
				"strapline": "Reklam başlığı"
			},
			{
				"title": "Eylem Çağrısı düğmesi",
				"body": "Eylem Çağrısı zorunlu bir bileşendir. Kullanıcıları yapılacak eyleme yönlendirir. Sık kullanılan eylem çağrıları arasında “Şimdi Yükle”, “Daha Fazla Bilgi Al”, “Şimdi Satın Al”, \"İndir\" ve “Şimdi Alışveriş Yap” yer alır.",
				"_graphic": {
					"src": "course/en/images/nar2.png",
					"alt": "Eylem Çağrısı düğmesi"
				},
				"strapline": "Eylem Çağrısı düğmesi."
			},
			{
				"title": "AdChoices simgesi",
				"body": "Kullanıcılar, reklam tercihlerini ayarlamak için bu simgeye tıklayabilir. AdChoices simgesi veya sponsorlu etiketinden birini kullanmanız gerekir.",
				"_graphic": {
					"src": "course/en/images/nar3.png",
					"alt": "AdChoices simgesi"
				},
				"strapline": "AdChoices simgesi"
			},		{
				"title": "Sponsorlu etiketi",
				"body": "Bu, ünitenin reklam olduğunu açıkça belirtir. AdChoices simgesi veya sponsorlu etiketinden birini kullanmanız gerekir.",
				"_graphic": {
					"src": "course/en/images/nar4.png",
					"alt": "Sponsorlu etiketi"
				},
				"strapline": "Sponsorlu etiketi"
			},
			{
				"title": "Medya",
				"body": "Çoğu durumda, platforma özel reklamlarınızın bir görsel, video veya döngü (kayan görüntüler) içermesi gerekir. Bu varlık isteğe bağlı olsa da, kullanıcının dikkatini çekme şansı yüksek bir reklam bileşeni olduğu için dahil etmenizi tavsiye ederiz.",
				"_graphic": {
					"src": "course/en/images/nar5.png",
					"alt": "Tüm reklam alanları için geliri en üst düzeye çıkarın."
				},
				"strapline": "Tüm reklam alanları için geliri en üst düzeye çıkarın."
			},
			{
				"title": "Reklam simgesi",
				"body": "Bu genellikle reklamverenin sık kullanılanlar simgesidir. İsteğe bağlı bir bileşen olmakla birlikte medya bileşeni gibi çoğu durumda bu bileşeni de dahil etmenizi tavsiye ederiz.",
				"_graphic": {
					"src": "course/en/images/nar6.png",
					"alt": "Reklam simgesi."
				},
				"strapline": "Reklam simgesi"
			},
			{
				"title": "Reklam metni",
				"body": "Reklam metni 90 karakterden uzun olamaz. İsteğe bağlı bir bileşen olmakla birlikte dahil etmenizi tavsiye ederiz.",
				"_graphic": {
					"src": "course/en/images/nar7.png",
					"alt": "Reklam metni"
				},
				"strapline": "Reklam metni"
			},
            {
				"title": "Sosyal bağlam",
				"body": "Facebook beğenmeleri ve uygulama mağazası puanları gibi sosyal medya etkileşimlerine bağlantı verme olanağı sağlar. İsteğe bağlı bir bileşendir.",
				"_graphic": {
					"src": "course/en/images/nar8.png",
					"alt": "Sosyal bağlam"
				},
				"strapline": "Sosyal bağlam"
			}
		],
		"_pageLevelProgress": {
			"_isEnabled": true
		}
	},
    {
        "_id":"c-331",
        "_parentId":"b-33",
        "_type":"component",
        "_component":"text",
        "_classes":"",
        "_layout":"full",
        "title":"İnsanlara dayalı reklamlar",
        "displayTitle":"İnsanlara dayalı reklamlar",
        "body":"Platforma özel reklamlar da dahil olmak üzere tüm Audience Network reklamları Facebook’un insanlara dayalı pazarlamasıyla gelen benzersiz avantajlar sunar.<br><br><h2>Uygulamanızı kullanan insanlara kendileriyle alakalı reklamlar yayınlayın.</h2>İnsanların önemsediği reklamlar reklamverenler için daha iyi sonuçlar sağlar ve yayıncılar için de daha yüksek reklam geliri anlamına gelir. Facebook’un insanlara dayalı pazarlaması hedef kitlenizin ilgi alanlarına uyan, kullanıcı deneyimini koruyan ve envanterinizin değerini artıran yüksek kaliteli reklamlar yayınlamanızı sağlar. Platforma özel reklamlarınız sadece daha iyi görünmekle kalmaz, kullanıcılarınız için daha alakalı ve reklamverenler için daha değerlidir.<br><br><h2>İnsanlara dayalı ve çerezlere dayalı reklam yayını</h2>Facebook, farklı cihaz ve platformlarda çerezlere dayalı sektör standardına kıyasla daha yüksek bir doğrulukla hedefleme ve ölçüm sağlar. Facebook’un insanlara dayalı pazarlaması, hedef kitlenize kullandıkları tüm cihazlarda kendileriyle daha alakalı reklamlar yayınlar. Bu, yayıncılar için daha yüksek kullanıcı etkileşimi anlamına gelir ve kullanıcılar uygulamanızla etkileşime geçtiğinde uygulamada daha çok zaman geçirme ve uygulamaya daha sık gelme olasılıkları daha yüksektir.",
            "instruction":"",
            "_pageLevelProgress": {
                "_isEnabled": true
            }
    }, 
    {
      "_id":"c-341",
      "_parentId":"b-34",
      "_type":"component",
      "_component":"content-accordion",
      "_classes":"",
      "_layout":"full",
      "title": "Filtreler ve kontroller",
      "displayTitle": "Filtreler ve kontroller",
      "body": "Facebook, reklam alanlarınız için alaka düzeyi yüksek reklamları seçmek ve yayınlamak üzere insanlara dayalı kriterler kullanır. Audience Network, reklam kategorilerini dahil ederek veya hariç tutarak reklam yayınını iyileştirmenize ve isterseniz belirli reklamverenleri engellemenize olanak sağlar. Aşağıdaki kriterlerle filtreleme yaparak, reklam içeriklerinin <em>sizin</em> içeriklerinizle tutarlı olduğundan ve kullanıcı deneyimini bozmadığından emin olun:",
      "instruction": "",
      "_setCompletionOn":"inview",
      "_items": [
        {
          "alt": "Uygulamalar",
          "title": "Uygulamalar",
          "body": "Reklamını yayınlamak istemediğiniz uygulamaları belirtmek için iTunes veya Google Play Store URL’lerini ayrı ayrı girin veya toplu bir liste yükleyin. Bu özellik, doğrudan rakiplerinizin veya uygulamanıza uymadığını düşündüğünüz başka bir uygulamanın reklamlarını yayınlamaktan kaçınmak için faydalıdır. <br><br>Not: Burada fazla kısıtlama getirmek reklam yayınını etkileyebilir.<br><br><img src='course/en/images/filters.png'>"  
        },
        {
          "alt": "Domainler",
          "title": "Domainler",
          "body": "Belirli internet sitelerinin reklamlarının yayınlanmasını engellemek için domainleri ve alt domainleri ayrı ayrı girin veya toplu bir liste yükleyin.<br><br>Not: Burada fazla kısıtlama getirmek reklam yayınını etkileyebilir.<br><br><img src='course/en/images/domains.png'>"  
        },
        {
          "alt": "Reklam kategorileri",
          "title": "Reklam kategorileri",
          "body": "Yayınladığınız reklamların uygulamanız için uygun ve kullanıcılarınız için alakalı olduğundan emin olmak için reklam kategorilerini dahil edin veya hariç tutun.<br><br>Not: Çok fazla kategoriyi kısıtlamak reklam yayınını, doluluk oranını ve CPM’leri azaltabilir.<br><br><img src='course/en/images/controls.png'>"  
            }
          ]
    },
    {
        "_id": "c-391",
        "_parentId": "b-39",
        "_type": "component",
        "_component": "co-jump",
        "_classes": "color-test",
        "_preLinkBody": "Sıradaki bölümde, platforma özel reklamları nasıl kullanmaya başlayacağınızı adım adım göstereceğiz: ",
        "_linkBody": "Kullanıma Alma",
        "_postLinkBody": ".",
        "_link": "#/id/co-40",
        "_graphic": "adapt/css/assets/icon_nextPage.png",
        "_pageLevelProgress": {
            "_isEnabled": false
        }
    },
    {
        "_id":"c-401",
        "_parentId":"b-40",
        "_type":"component",
        "_component":"text",
        "_classes":"",
        "_layout":"full",
        "title":"Başlık",
        "displayTitle":"Kullanmaya başlama",
        "body":"Audience Network’ü <a href='https://developers.facebook.com/docs/audience-network' target=_blank>yeni kullanmaya başlıyorsanız</a> şu ön adımları uygulayın:<br><br><ul><li>Facebook hesabınıza giriş yapın (gerçek bir hesap olmalıdır).</li><li>Bir Facebook uygulama kodu oluşturun ve ardından bu kodu kullanarak uygulamanızı bağlayın.</li><li>Bir reklam alanı oluşturun ve reklam alanı kodu alın.</li><li>En yeni <a href='https://developers.facebook.com/docs/app-ads/sdk' target=_blank>Audience Network SDK</a>’yi yükleyin ve uygulamanıza ekleyin veya (Android için) Gradle kullanarak SDK’yi bağlayın.</li><li>Google Play’de veya iTunes uygulama mağazasında yayında olan veya yayınlanmak üzere geliştirme aşamasında olan uygulamanız olduğundan emin olun.</li></ul><br>Uygulamalarınız yayınlanmadan önce Audience Network’ü entegre edebilir ve reklam ünitelerinizi test edebilirsiniz. Zaten reklam yayınlıyorsanız sıradaki bölümü atlayın ve <a href='#/id/b-42'><strong>Android için</a> veya <a href='#/id/b-44'><strong>iOS için</a> platforma özel reklamları kullanmaya başlama kısmına gidin.",
            "instruction":"",
            "_pageLevelProgress": {
                "_isEnabled": true
            }
    },
    {
        "_id":"c-402",
        "_parentId":"b-40",
        "_type":"component",
        "_component":"graphic",
        "_classes":"",
        "_layout":"full",
        "title":"",
        "displayTitle":"",
        "body":"",
        "instruction":"",
        "_graphic": {
            "alt": "alternatif metin",
            "large": "course/en/images/an_start.png",
            "attribution":""
        }
    },
    {
      "_id":"c-411",
      "_parentId":"b-41",
      "_type":"component",
      "_component":"content-accordion",
      "_classes":"",
      "_layout":"full",
      "title": "Audience Network’ü kullanmaya başlamak için detaylı adımlar",
      "displayTitle": "Audience Network’ü kullanmaya başlamak için detaylı adımlar",
      "body": "Geliştirme yaptığınız mobil platformdan bağımsız olarak, Audience Network’ü kullanmaya başlamak için aşağıdaki adımları takip edin:",
      "instruction": "",
      "_setCompletionOn":"inview",
      "_items": [
        {
          "alt": "1. Adım: Facebook’ta uygulamanızı yapılandırın",
          "title": "1. Adım: Facebook’ta uygulamanızı yapılandırın",
          "body": " <a href='https://developers.facebook.com/docs/audience-network/getting-started' target=_blank>Geliştiriciler İçin Facebook sitesinde</a>, <strong>Facebook Uygulamasını Yapılandır</strong> düğmesine tıklayın ve ekrandaki talimatları izleyin.  Audience Network etkinleştirilmiş olarak yeni bir Facebook uygulaması oluşturabilir veya mevcut bir uygulamada Audience Network’ü etkinleştirebilirsiniz. Ardından, yapılandırma işlemine devam etmeniz için uygulama panosunun Audience Network bölümüne yönlendirilirsiniz.<br><br><img src='course/en/images/step1.png'><br><img src='course/en/images/step1a.png'>"  
        },
        {
          "alt": "2. Adım: Reklam alanlarını yapılandırın",
          "title": "2. Adım: Reklam alanlarını yapılandırın",
          "body": "Bu adımı Pano’daki Audience Network sekmesinin altında tamamlayın.<br><br>https://developers.facebook.com/apps/<strong>Uygulama_kodunuz</strong>/audience-network/<br><br><ul><li><strong>Reklam Alanları</strong> sekmesine tıklayın.</li><li><strong>Reklam Alanı Oluştur</strong> düğmesine tıklayın.</li><li>Formu doldurun ve <strong>Platforma Özel</strong> formatını seçin.</li></ul>Uygulamanızdaki her reklam ünitesi, benzersiz bir reklam alanı kodu kullanılarak tanımlanır. Bu adımda reklam alanı oluşturma ve yapılandırma işlemi anlatılacaktır. Uygulamanızın veya mobil internet sitenizin birden çok reklam ünitesi varsa birden çok yeni reklam alanı da oluşturabilirsiniz. <br><br><img src='course/en/images/step2.png'>"  
        },
        {
          "alt": "3. Adım: Uygulamanızda Audience Network reklamlarını gösterin",
          "title": "3. Adım: Uygulamanızda Audience Network reklamlarını gösterin",
          "body": "Artık Audience Network SDK’yi uygulamanıza veya mobil internet sitenize entegre edip reklam göstermeye başlayabilirsiniz. Platformunuza yönelik uygulama kılavuzunu takip edin. <br><br><img src='course/en/images/step3.png'>"  
        },
        {
          "alt": "SDK Entegrasyonu: Android",
          "title": "Gradle’ı kullanarak SDK entegrasyonu: Android",
          "body": "Android’de, SDK’yi doğrudan indirip yüklemek yerine <strong>Gradle</strong>’ı kullanmanızı tavsiye ediyoruz. Tam detaylı anlatım için Geliştiriciler İçin Facebook sitesindeki <a href='https://developers.facebook.com/docs/audience-network/android' target=_blank>Android Uygulama Kılavuzu</a>’na gidin.<br><br><img src='course/en/images/gradle_ss.png'><br><br>En yeni Audience Network SDK’yi kullanmak için aşağıdaki derleme deyimini uygulama seviyesindeki build.gradle’a ekleyin (proje seviyesinde değil!):<br><img src='course/en/images/gradleline.png'><br>Audience Network SDK çözümlemesinde sorunlar olursa Gradle dosyanızı senkronize ettiğinizden emin olun ve Android Studio’yu yeniden başlatmayı deneyin."  
        },
        {
          "alt": "SDK Entegrasyonu: iOS",
          "title": "SDK entegrasyonu: iOS",
          "body": "Geliştiriciler İçin Facebook sitesindeki <a href='https://developers.facebook.com/docs/audience-network/ios' target=_blank>iOS Uygulama Kılavuzu</a>’na gidin ve <strong>SDK’yi İndir</strong> düğmesine tıklayıp tüm talimatları takip edin.<br><br><img src='course/en/images/step3b.png'>"  
        },
        {
          "alt": "4. Adım: Uygulamanızı değerlendirmeye gönderin",
          "title": "4. Adım: Uygulamanızı değerlendirmeye gönderin",
          "body": "Uygulamanıza Audience Network’ü entegre edip test ettikten ve iOS App Store ve/veya Google Play Store’da yayınlandıktan sonra <a href='https://developers.facebook.com/docs/audience-network/getting-started#onboarding' target=_blank>uygulamanızı değerlendirmeye gönderin</a>. Uygulamanız onaylandığında otomatik olarak gerçek reklamlar göstermeye başlayacaktır.<br><br><img src='course/en/images/step4.png'>"  
        },
        {
          "alt": "5. Adım: Ödeme alma bilgilerini sağlayın ",
          "title": "5. Adım: Ödeme alma bilgilerini sağlayın ",
          "body": "Audience Network’te para kazanmaya başlamak için panodaki <a href='https://developers.facebook.com/docs/audience-network/getting-started#payout' target=_blank><strong>Ödeme</strong></a> sekmesinde şirket ve banka bilgilerinizi girmeniz gerekir. Bu, Audience Network’ü kullanan ilk uygulamanız değilse, yöneticilik yaptığınız şirketlerin listesinden seçip bu uygulamaya eklemeniz gerekeceğini aklınızda bulundurun. Şirketinizi mevcut şirketler listesinde görmüyorsanız bunun nedeni şirket yöneticisi olmamanız olabilir. Bu sorunu, hem şirket yöneticisi hem de uygulama yöneticisi olan birinden şirketi uygulamaya eklemesini isteyerek çözebilirsiniz.<br><br><img src='course/en/images/step5.png'>"  
        }
          ]
    },
    {
        "_id":"c-421",
        "_parentId":"b-42",
        "_type":"component",
        "_component":"text",
        "_classes":"",
        "_layout":"full",
        "title":"Platforma özel reklam API’si: Android",
        "displayTitle":"Platforma özel reklam API’si: Android",
        "body":"<a href='https://developers.facebook.com/docs/audience-network/android-native' target=_blank>Android için platforma özel reklam API’si</a>, uygulamanızda göstereceğiniz reklamlar için özelleştirilmiş bir deneyim oluşturmanızı sağlar. Platforma özel reklam API’sini kullanırken görüntülenmeye hazır bir reklam almak yerine, başlık, görsel, eylem çağrısı gibi bir grup <strong>reklam özelliği</strong> alır ve bunları reklamın gösterildiği yerde özel bir görünüm oluşturmak için kullanırsınız.",
            "instruction":"",
            "_pageLevelProgress": {
                "_isEnabled": true
            }
    },
	{
        "_id":"c-431",
        "_parentId":"b-43",
        "_type":"component",
        "_component":"media",
        "_classes":"",
        "_layout":"full",
		"title": "Video: Android’de platforma özel reklam alanları oluşturma",
        "displayTitle": "Video: Android’de platforma özel reklam alanları oluşturma",
        "_setCompletionOn":"inview",
        "_useClosedCaptions":true,
        "_startLanguage":"en",
        "_media": {
            "mp4": "course/en/video/native_android_edit.mp4",
            "poster": "course/en/video/native_android_edit.png"
        },
        "_transcript": {
            "_setCompletionOnView":true,
            "_inlineTranscript": true,
            "_externalTranscript": false,
            "inlineTranscriptButton": "Video Metni",
            "inlineTranscriptCloseButton": "Video Metnini Kapat",
            "inlineTranscriptBody": "<ul><li>(Ses) Audience Network, Android uygulamalarınızda platforma özel reklam yayınlamayı kolay hale getirir.”</li><li>Android uygulamanızda platforma özel reklamlar yayınlayın.</li><li>Geliştiriciler İçin Facebook’a giriş yapın </li><li>Reklam Alanınızı oluşturun</li><li>Platforma Özel formatını seçin ve Kaydet’e tıklayın</li><li>Kod Al’a tıklayın</li><li>Android ve Platforma Özel’i seçin</li><li>Ses: Kodun eklenmesi için belirli adımlar farklılık gösterir.</li><li>Detaylar için Geliştiriciler İçin Facebook destek kaynaklarına başvurun.</li><li>Kodu gereken şekilde uygulamanıza kopyalayın</li><li>Platforma özel reklamınızı oluşturmak için reklam meta veri özelliklerini kullanın.</li><li>Uygulamanızla entegre etmek için özelleştirin </li><li>Hepsi bu kadar! </li><li>Android uygulamanızda platforma özel reklamları reklam bantları kadar kolay yayınlayın!</li><li>(Ses) Android için Audience Network platforma özel reklamları sayesinde artan kullanıcı etkileşimi ve uygulama gelirleri ile reklam kalitenizi yükseltin.</li><ul>",
            "transcriptLinkButton": "Video Metni",
            "transcriptLink": ""
        },
        "_playerOptions": {
            "poster": "",
            "showPosterWhenEnded": false,
            "defaultVideoWidth": 1280,
            "defaultVideoHeight": 720,
            "videoWidth": -1,
            "videoHeight": -1,
            "defaultAudioWidth": 400,
            "defaultAudioHeight": 30,
            "defaultSeekBackwardInterval": "(media.duration * 0.05)",
            "defaultSeekForwardInterval": "(media.duration * 0.05)",
            "audioWidth": -1,
            "audioHeight": -1,
            "startVolume": 0.8,
            "loop": false,
            "autoRewind": true,
            "enableAutosize": true,
            "alwaysShowHours": false,
            "showTimecodeFrameCount": false,
            "framesPerSecond": 25,
            "autosizeProgress" : true,
            "alwaysShowControls": false,
            "hideVideoControlsOnLoad": false,
            "clickToPlayPause": true,
            "iPadUseNativeControls": false,
            "iPhoneUseNativeControls": false,
            "AndroidUseNativeControls": false,
            "features": ["playpause","current","progress","duration","tracks","volume","fullscreen"],
            "isVideo": true,
            "enableKeyboard": true,
            "pauseOtherPlayers": true,
            "startLanguage": "",
            "tracksText": "mejs.i18n.t('Captions/Subtitles')",
            "hideCaptionsButtonWhenEmpty": true,
            "toggleCaptionsButtonWhenOnlyOne": false,
            "slidesSelector": ""
        }
    },
    {
        "_id":"c-441",
        "_parentId":"b-44",
        "_type":"component",
        "_component":"text",
        "_classes":"",
        "_layout":"full",
        "title":"Platforma özel reklam API’si: iOS",
        "displayTitle":"Platforma özel reklam API’si: iOS",
        "body":"<a href='https://developers.facebook.com/docs/audience-network/ios-native' target=_blank>Platforma özel reklam API’si</a>, uygulamanızda gösterdiğiniz reklamlar için özelleştirilmiş bir deneyim oluşturmanızı sağlar. Platforma özel reklam API’sini kullanırken görüntülenmeye hazır bir reklam almak yerine, başlık, görsel ve eylem çağrısı gibi bir grup reklam özelliği alırsınız ve bunları reklamın gösterildiği yerde özel bir UIView oluşturmak için kullanmanız gerekir.",
            "instruction":"",
            "_pageLevelProgress": {
                "_isEnabled": true
            }
    },
	{
        "_id":"c-451",
        "_parentId":"b-45",
        "_type":"component",
        "_component":"media",
        "_classes":"",
        "_layout":"full",
		"title": "Video: iOS’ta platforma özel reklam alanı yükleme",
        "displayTitle": "Video: iOS’ta platforma özel reklam alanı yükleme",
        "_setCompletionOn":"inview",
        "_useClosedCaptions":true,
        "_startLanguage":"en",
        "_media": {
            "mp4": "course/en/video/native_ios_edit.mp4",
            "poster": "course/en/video/native_ios_edit.png"
        },
        "_transcript": {
            "_setCompletionOnView":true,
            "_inlineTranscript": true,
            "_externalTranscript": false,
            "inlineTranscriptButton": "Video Metni",
            "inlineTranscriptCloseButton": "Video Metnini Kapat",
            "inlineTranscriptBody": "<ul><li>(Ses) Audience Network, iOS uygulamalarınızda platforma özel reklam yayınlamayı kolay hale getirir.</li><li>iOS uygulamanızda platforma özel reklamlar yayınlayın.</li><li>Geliştiriciler İçin Facebook’a giriş yapın </li><li>Reklam Alanınızı oluşturun</li><li>Platforma Özel formatını seçin ve Kaydet’e tıklayın</li><li>Kod Al’a tıklayın</li><li>iOS’u ve Platforma Özel’i seçin</li><li>(Ses) Kodun eklenmesi için belirli adımlar farklılık gösterir.   </li><li>Detaylar için Geliştiriciler İçin Facebook destek kaynaklarına başvurun.</li><li>Kodu gereken şekilde uygulamanıza kopyalayın</li><li>Platforma özel reklamınızı oluşturmak için nativeAd özelliklerini kullanın.</li><li>Uygulamanızla entegre etmek için özelleştirin </li><li>Hepsi bu kadar! </li><li>iOS uygulamanızda platforma özel reklamları reklam bantları kadar kolay yayınlayın!</li><li>(Ses) iOS için Audience Network platforma özel reklamları sayesinde artan kullanıcı etkileşimi ve uygulama gelirleri ile reklam kalitenizi yükseltin.</li><ul>",
            "transcriptLinkButton": "Video Metni",
            "transcriptLink": ""
        },
        "_playerOptions": {
            "poster": "",
            "showPosterWhenEnded": false,
            "defaultVideoWidth": 1280,
            "defaultVideoHeight": 720,
            "videoWidth": -1,
            "videoHeight": -1,
            "defaultAudioWidth": 400,
            "defaultAudioHeight": 30,
            "defaultSeekBackwardInterval": "(media.duration * 0.05)",
            "defaultSeekForwardInterval": "(media.duration * 0.05)",
            "audioWidth": -1,
            "audioHeight": -1,
            "startVolume": 0.8,
            "loop": false,
            "autoRewind": true,
            "enableAutosize": true,
            "alwaysShowHours": false,
            "showTimecodeFrameCount": false,
            "framesPerSecond": 25,
            "autosizeProgress" : true,
            "alwaysShowControls": false,
            "hideVideoControlsOnLoad": false,
            "clickToPlayPause": true,
            "iPadUseNativeControls": false,
            "iPhoneUseNativeControls": false,
            "AndroidUseNativeControls": false,
            "features": ["playpause","current","progress","duration","tracks","volume","fullscreen"],
            "isVideo": true,
            "enableKeyboard": true,
            "pauseOtherPlayers": true,
            "startLanguage": "",
            "tracksText": "mejs.i18n.t('Captions/Subtitles')",
            "hideCaptionsButtonWhenEmpty": true,
            "toggleCaptionsButtonWhenOnlyOne": false,
            "slidesSelector": ""
        }
    },
    {
        "_id":"c-461",
        "_parentId":"b-46",
        "_type":"component",
        "_component":"text",
        "_classes":"",
        "_layout":"full",
        "title":"Platforma özel reklam şablonları",
        "displayTitle":"Platforma özel reklam şablonları",
        "body":"Platforma özel reklamları entegre ederken hızlı bir başlangıç yapmak isteyen yayıncılar özel bir Audience Network platforma özel reklam şablonundan yararlanabilir. Şablonla başlayın ve ardından uygulamanızın görünümüyle uyum sağlamak için reklam ünitesinin boyutunu, rengini ve yazı tipini özelleştirin.<br><Br><ul><li><a href='https://developers.facebook.com/docs/audience-network/ios/nativeadtemplate' target=_blank>iOS platforma özel reklam şablonu</a> </li><li><a href='https://developers.facebook.com/docs/audience-network/android/nativeadtemplate' target=_blank>Android platforma özel reklam şablonu</a> </li></ul>",
            "instruction":"",
            "_pageLevelProgress": {
                "_isEnabled": true
            }
    },
    {
        "_id": "c-491",
        "_parentId": "b-49",
        "_type": "component",
        "_component": "co-jump",
        "_classes": "color-test",
        "_preLinkBody": "Sıradaki bölümde, platforma özel reklamlarla para kazanmış uygulamalardan ",
        "_linkBody": "Başarı Hikayeleri",
        "_postLinkBody": " var.",
        "_link": "#/id/co-50",
        "_graphic": "adapt/css/assets/icon_nextPage.png",
        "_pageLevelProgress": {
            "_isEnabled": false
        }
    },
    {
        "_id":"c-501",
        "_parentId":"b-50",
        "_type":"component",
        "_component":"text",
        "_classes":"",
        "_layout":"left",
        "title":"Uygulama yayıncılarından başarı hikayeleri",
        "displayTitle":"Uygulama yayıncılarından başarı hikayeleri",
        "body":"Audience Network yayıncıları, çok sayıda uygulama ve medya kategorilerine dahildirler. Aşağıda gösterilen örneklerde, bu yayıncılardan bazılarının platforma özel reklamlarla mobil deneyimlerinden nasıl para kazandıklarını öğrenin.",
            "instruction":"",
            "_pageLevelProgress": {
                "_isEnabled": true
            }
    },
    {
        "_id":"c-502",
        "_parentId":"b-50",
        "_type":"component",
        "_component":"graphic",
        "_classes":"",
        "_layout":"right",
        "title":"İçerik Obje Başlığı",
        "displayTitle":"",
        "body":"",
        "instruction":"",
        "_graphic": {
            "alt": "alternatif metin",
            "large": "course/en/images/successstories.jpg",
            "attribution":""
        }
    },
    {
        "_id":"c-511",
        "_parentId":"b-51",
        "_type":"component",
        "_component":"text",
        "_classes":"",
        "_layout":"full",
        "title":"FotMob",
        "displayTitle":"FotMob",
        "body":"<div style='float:left;padding-right:20px;'><img src='course/en/images/fotmob_example.png'></div><h2>FotMob, Audience Network platforma özel reklamları ile standart reklam bandına kıyasla %30 daha yüksek eCPM ve 2 kat CPM elde ediyor.</h2><br>Norveçli uygulama yayıncısı NorApps’in yayınladığı FotMob gerçek zamanlı skorları, canlı yorumları ve son dakika haberlerini kontrol ederek tuttukları takımı takip etmek isteyen taraftarlara yönelik bir uygulama. Uygulama tüm dünyada 12 milyondan fazla kez indirildi.<br><br>FotMob’un popülerliğinin büyük kısmı kişiye özel bilgiler sunmasından, ilgi çekici tasarımından ve güçlü kullanıcı deneyiminden geliyor. Kullanıcılar, ilgilendikleri futbol takımlarını, oyuncuları ve ligleri seçerek özelleştirilmiş bir bilgi akışı görür. Bu nedenle FotMob, para kazanırken kullanıcı deneyiminin bütünlüğünü korumanın hayati öneme sahip olduğunu biliyordu.<br><br><h2>Platforma özel reklamların entegrasyonu</h2>Şirket, yılın başında standart reklam bantlarını değiştirmeye karar verdi. Alakalı reklamları doğrudan akışın içine entegre ederek daha az gösterimle daha yüksek gelir sağladılar. Hatta, standart reklam bantlarına kıyasla 2 kattan daha fazla CPM elde ettiler. En önemlisi de, reklamlar maç bilgilerinin içinde doğal görünüyor ve kullanıcıların uygulamadan keyif almasına engel olmuyordu.<br><br><em>“Audience Network’teki “Match Facts” reklam alanının performansından çok memnunuz. Daha az gösterimle daha yüksek gelir elde etmemizi sağlıyor. Ayrıca, rakip reklam ağlarının platforma özel reklamlarından %30 daha yüksek eCPM getiriyor.”</em><br><br>- Christer Nordvik, CEO, NorApps",
            "instruction":"",
            "_pageLevelProgress": {
                "_isEnabled": true
            }
    },
    {
        "_id":"c-521",
        "_parentId":"b-52",
        "_type":"component",
        "_component":"text",
        "_classes":"",
        "_layout":"full",
        "title":"LittleThings",
        "displayTitle":"LittleThings",
        "body":"<div style='float:left;padding-right:20px;'><img src='course/en/images/littlethings_example.png'></div><h2>Platforma özel reklamlar %20 daha iyi performans ve %25 daha yüksek CPM’ler sağlıyor.</h2><br>Yaşam tarzı yayıncısı LittleThings, iyi hissetmenizi sağlayacak pozitif içerikleri ve etkileşimi artıran kullanıcı deneyimiyle dünya çapında muazzam bir büyüme yakaladı. Şirketin şu anda tüm dünyada aylık 52,9 milyon tekil comScore okuyucusu ve 9 milyondan fazla Facebook hayranı var.<br><br>İşletmesini programlı reklam gelirleri üzerine kuran LittleThings, içerik oluşturmadan para kazanmaya kadar tüm işletme alanlarında sürekli olarak yeni fırsatları arayıp test etmektedir. Rekabetçi CPM’lerle yüksek kaliteli ve yüksek seviyede hedeflenmiş reklamlar getirebilecek reklam ortakları aramaktadır. Programlı olarak benzersiz bir talep bulmak için sınırlı seçenek olduğundan LittleThings, dinamik bir reklamveren tabanı ve genel kullanıcı deneyimine katkıda bulunacak reklamlar arıyordu.<br><br>LittleThings, Audience Network’ün platforma özel formatlarını kullanarak geleneksel formattaki reklamlara kıyasla %20 yükseliş ve diğer reklam ortaklarına kıyasla %25 daha yüksek CPM’ler elde ettiklerini tahmin ediyor.<br><br><em>“Facebook, insanları paylaştıkları ilgi alanlarına göre hedefleyebildiğinden onlar için anlamlı olacak reklamlar sunabiliyoruz ve tam anlamıyla kişiselleştirilmiş bir deneyim oluşturuyoruz. Doluluk oranımız, CTR’miz, CPM’lerimiz ve genel gelirlerimiz %15-25 oranında arttı. Bunun büyük bir kısmı Audience Network’ün sağladığı hedefleme ve tasarım fırsatları sayesinde oldu. Yüksek kaliteli bir kullanıcı deneyimini korurken platforma özel reklamların değerini en üst düzeye çıkarmak için sürekli olarak reklam ünitelerimizle oynayıp testler gerçekleştirebilmekten çok memnunuz.”</em><br><br>- Gretchen Tibbits, COO LittleThings",
            "instruction":"",
            "_pageLevelProgress": {
                "_isEnabled": true
            }
    },
    {
        "_id":"c-531",
        "_parentId":"b-53",
        "_type":"component",
        "_component":"media",
        "_classes":"",
        "_layout":"full",
        "title":"Tango",
        "displayTitle": "Tango Fiesta",
        "body": "Tango’nun Fiesta uygulaması, insanların dünyanın başka yerlerinden insanlarla tanışmasını ve güncellemeler, fotoğraflar, videolar paylaşmasını sağlıyor. Sola/sağa kaydırma bölgesine platforma özel bir reklam alanı eklemek, kullanıcı akışları içerisinde doğallığı bozmayan bir tercih oldu.",
        "instruction": "",
        "_setCompletionOn":"inview",
        "_useClosedCaptions":true,
        "_startLanguage":"en",
        "_media": {
            "mp4": "course/en/video/tango.mp4",
            "poster": "course/en/video/tango.png"
        },
        "_playerOptions": {
            "poster": "",
            "showPosterWhenEnded": false,
            "defaultVideoWidth": 1280,
            "defaultVideoHeight": 720,
            "videoWidth": -1,
            "videoHeight": -1,
            "defaultAudioWidth": 270,
            "defaultAudioHeight": 30,
            "defaultSeekBackwardInterval": "(media.duration * 0.05)",
            "defaultSeekForwardInterval": "(media.duration * 0.05)",
            "audioWidth": -1,
            "audioHeight": -1,
            "startVolume": 0.8,
            "loop": false,
            "autoRewind": true,
            "enableAutosize": false,
            "alwaysShowHours": false,
            "showTimecodeFrameCount": false,
            "framesPerSecond": 25,
            "autosizeProgress" : true,
            "alwaysShowControls": false,
            "hideVideoControlsOnLoad": false,
            "clickToPlayPause": true,
            "iPadUseNativeControls": false,
            "iPhoneUseNativeControls": false,
            "AndroidUseNativeControls": false,
            "features": ["playpause","current","progress","duration","tracks","volume","fullscreen"],
            "isVideo": true,
            "enableKeyboard": true,
            "pauseOtherPlayers": true,
            "startLanguage": "en",
            "tracksText": "mejs.i18n.t('Captions/Subtitles')",
            "hideCaptionsButtonWhenEmpty": true,
            "toggleCaptionsButtonWhenOnlyOne": false,
            "slidesSelector": ""
        }
    },
    {
        "_id": "c-591",
        "_parentId": "b-59",
        "_type": "component",
        "_component": "co-jump",
        "_classes": "color-test",
        "_preLinkBody": "Son bölümümüz: ",
        "_linkBody": "Gözden Geçirme ve Bilgi Kontrolü",
        "_postLinkBody": ".",
        "_link": "#/id/co-60",
        "_graphic": "adapt/css/assets/icon_nextPage.png",
        "_pageLevelProgress": {
            "_isEnabled": false
        }
    },
    {
        "_id":"c-601",
        "_parentId":"b-60",
        "_type":"component",
        "_component":"text",
        "_classes":"",
        "_layout":"full",
        "title":"Daha yüksek reklamveren değeri = daha yüksek yayıncı değeri",
        "displayTitle":"Daha yüksek reklamveren değeri = daha yüksek yayıncı değeri",
        "body":"<div style='float:left;padding-right:20px;'><img src='course/en/images/summary.png'></div>Facebook olarak reklam ekosisteminin tamamı için değer oluşturmak bizim açımızdan çok önemlidir. Audience Network içinde adil bir değer değişimi sağlamak için reklamveren değeri ile yayıncı değeri arasında karşılıklı bir ilişki kuruyoruz. Böylece, reklamverenlerin istedikleri hedeflere ulaşmasına yardımcı olan yayıncılar daha yüksek gelir elde ediyor.<br><br>Uygulamanız reklamverenlerin istedikleri sonuçlardan daha fazla sayıda elde etmesine yardımcı oluyorsa, envanteriniz daha değerli ve CPM’leriniz daha yüksek olacaktır. Envanteriniz için daha yüksek CPM’ler elde etmek istiyorsanız, optimizasyonunuz reklamverenler için gerçek sonuçlara ulaşmaya odaklanmalıdır ve daha yüksek etkileşim de buna katkı sağlar. Reklam etkileşimini artırmak için reklam alanlarınızın konumunu, tasarımını ve zamanlamasını seçerken kullanıcının bakış açısını dikkate almak önemlidir. Platforma özel reklamlar, kullanıcılar için reklam deneyimini geliştirerek reklam alanlarınızın değerini artırır ve böylelikle geliriniz de artar.",
            "instruction":"",
            "_pageLevelProgress": {
                "_isEnabled": true
            }
    },
    {
        "_id":"c-621",
        "_parentId":"b-62",
        "_type":"component",
        "_component":"text",
        "_classes":"",
        "_layout":"full",
        "title":"",
        "displayTitle":"Bilgi kontrolü",
        "body":"Lütfen aşağıdaki bilgi kontrolünü tamamlayarak bu kursta öğrendiğiniz bilgileri ne kadar iyi anladığınızı kontrol edin. Her soruyu okuyun, cevaplarınızı seçin (birden fazla doğru cevap olabilir) ve cevaplarınızı kontrol etmek ve geribildirim almak için <strong>Gönder</strong>’e tıklayın.",
        "instruction":""
    },
    {
     "_id":"c-631",
        "_parentId":"b-63",
      "_type":"component",
      "_component":"mcq",
      "_setCompletionOn":"inview",
      "_classes":"",
      "_layout":"full",
      "_attempts":1,
      "_shouldDisplayAttempts": false,
      "_questionWeight":2,
      "_isRandom":false,
      "_selectable":3,
      "title": "Soru 1/4",
      "displayTitle": "Soru 1/4",
      "body": "Audience Network platforma özel reklamları için aşağıdakilerden hangileri zorunlu bileşenlerdir? (üç seçim yapın)",
      "instruction": "",
      "_items": [
            {
              "text": "Reklam başlığı",
              "_shouldBeSelected":true
            },
            {
               "text": "Reklam metni",
              "_shouldBeSelected":false
            },
            {
              "text": "Ad choices simgesi <em>veya</em> “sponsorlu” etiketi",
              "_shouldBeSelected":true
            },
            {
              "text": "Eylem çağrısı düğmesi",
              "_shouldBeSelected":true
            }
        ],
        "_feedback":{
            "correct":"Tebrikler, cevabınız doğru! Audience Network platforma özel reklamları için zorunlu bileşenler şunlardır: reklam başlığı, eylem çağrısı düğmesi ve Ad Choices simgesi <em>veya</em> bir “sponsorlu” etiketi. Reklam metni, medya, reklamveren simgesi ve sosyal bağlam kullanımı tavsiye edilmekle beraber isteğe bağlıdır.",
            "_incorrect": {
              "notFinal": "",
              "final": "Üzgünüz, yanlış cevap. Audience Network platforma özel reklamları için zorunlu bileşenler şunlardır: reklam başlığı, eylem çağrısı düğmesi ve ad choices simgesi <em>veya</em> “sponsorlu” etiketi. Reklam metni, medya, reklamveren simgesi ve sosyal bağlam kullanımı tavsiye edilmekle beraber isteğe bağlıdır."
            },
            "_partlyCorrect": {
              "notFinal": "",
              "final": "Üzgünüz, yanlış cevap. Audience Network platforma özel reklamları için zorunlu bileşenler şunlardır: reklam başlığı, eylem çağrısı düğmesi ve Ad Choices simgesi <em>veya</em> bir “sponsorlu” etiketi. Reklam metni, medya, reklamveren simgesi ve sosyal bağlam kullanımı tavsiye edilmekle beraber isteğe bağlıdır."
            }
        },
        "_buttons": {
        "_submit": {
          "buttonText": "Gönder",
          "ariaLabel": "Cevabınızı göndermek için buraya tıklayın."
        },
        "_reset": {
          "buttonText": "Sıfırla",
          "ariaLabel": ""
        },
        "_showCorrectAnswer": {
          "buttonText": "Doğru Cevap",
          "ariaLabel": ""
        },
        "_hideCorrectAnswer": {
          "buttonText": "Benim Cevabım",
          "ariaLabel": ""
        },
        "_showFeedback": {
          "buttonText": "Geribildirimi göster",
          "ariaLabel": ""
        },
            "remainingAttemptsText": "deneme kaldı",
            "remainingAttemptText": "son deneme"
        },
        "_pageLevelProgress": {
            "_isEnabled": true
        }
    },
    {
    "_id":"c-641",
        "_parentId":"b-64",
      "_type":"component",
      "_component":"mcq",
      "_classes":"",
      "_layout":"full",
      "_attempts":1,
      "_setCompletionOn":"inview",
      "_shouldDisplayAttempts": false,
      "_questionWeight":1,
      "_isRandom":false,
      "_selectable":3,
      "title": "Soru 2/4",
      "displayTitle": "Soru 2/4",
      "body": "Uygulama yayıncıları için platforma özel reklamların reklam bantlarına göre avantajları nelerdir? (üç seçim yapın)",
      "instruction": "",
      "_items": [
            {
              "text": "Daha iyi kullanıcı deneyimi",
              "_shouldBeSelected":true
            },
            {
              "text": "Daha yüksek eCPM’ler",
              "_shouldBeSelected":true
            },
            {
              "text": "Özelleştirilebilir tasarım ve yerleşim",
              "_shouldBeSelected":true
            },
            {
              "text": "Kullanıcıların reklamları görmemeyi seçememesi",
              "_shouldBeSelected":false
            }
        ],
        "_feedback":{
            "correct":"Tebrikler, cevabınız doğru! Platforma özel reklamlar reklam bantlarına göre daha iyi kullanıcı deneyimi, özel tasarımlar ve daha yüksek eCPM’ler sunar. Ancak, diğer reklamlar gibi aynı kullanıcı tercihlerine tabidirler.",
            "_incorrect": {
              "notFinal": "",
              "final": "Üzgünüz, yanlış cevap. Platforma özel reklamlar reklam bantlarına göre daha iyi kullanıcı deneyimi, özel tasarımlar ve daha yüksek eCPM’ler sunar. Ancak, diğer reklamlar gibi aynı kullanıcı tercihlerine tabidirler."
            },
            "_partlyCorrect": {
              "notFinal": "",
              "final": "Üzgünüz, yanlış cevap. Platforma özel reklamlar reklam bantlarına göre daha iyi kullanıcı deneyimi, özel tasarımlar ve daha yüksek eCPM’ler sunar. Ancak, diğer reklamlar gibi aynı kullanıcı tercihlerine tabidirler."
            }
        },
        "_buttons": {
        "_submit": {
          "buttonText": "Gönder",
          "ariaLabel": "Cevabınızı göndermek için buraya tıklayın."
        },
        "_reset": {
          "buttonText": "Sıfırla",
          "ariaLabel": ""
        },
        "_showCorrectAnswer": {
          "buttonText": "Doğru Cevap",
          "ariaLabel": ""
        },
        "_hideCorrectAnswer": {
          "buttonText": "Benim Cevabım",
          "ariaLabel": ""
        },
        "_showFeedback": {
          "buttonText": "Geribildirimi göster",
          "ariaLabel": ""
        },
            "remainingAttemptsText": "deneme kaldı",
            "remainingAttemptText": "son deneme"
        },
        "_pageLevelProgress": {
            "_isEnabled": true
        }
    },
    {
      "_id":"c-651",
        "_parentId":"b-65",
      "_type":"component",
      "_component":"mcq",
      "_classes":"",
      "_layout":"full",
      "_attempts":1,
      "_shouldDisplayAttempts": false,
      "_setCompletionOn":"inview",
      "_questionWeight":1,
      "_isRandom":false,
      "_selectable":1,
      "title": "Soru 3/4",
      "displayTitle": "Soru 3/4",
      "body": "Aşağıdakilerden hangisi reklam ünitenizden flört uygulamalarının reklamlarını hariç tutmanızı sağlar? (birini seçin)",
      "instruction": "",
      "_items": [
            {
              "text": "Reklam kategorileri",
              "_shouldBeSelected":true
            },
            {
              "text": "Domain filtresi",
              "_shouldBeSelected":false
            },
            {
              "text": "Uygulama filtresi",
              "_shouldBeSelected":false
            }
        ],
        "_feedback":{
            "correct":"Tebrikler, cevabınız doğru! Domain ve uygulama filtreleri, belirli URL’lerin veya uygulamaların reklam alanınızda reklam yayınlamasını engeller. Reklam kategorileri ise, ürün veya hizmet türüne dayalı olarak reklamverenleri toplu olarak hariç tutmanızı sağlar.",
            "_incorrect": {
              "notFinal": "",
              "final": "Yanlış cevap. Domain ve uygulama filtreleri, belirli URL’lerin veya uygulamaların reklam alanınızda reklam yayınlamasını engeller. Reklam kategorileri ise, ürün veya hizmet türüne dayalı olarak reklamverenleri toplu olarak hariç tutmanızı sağlar."
            },
            "_partlyCorrect": {
              "notFinal": "",
              "final": "Yanlış cevap. Domain ve uygulama filtreleri, belirli URL’lerin veya uygulamaların reklam alanınızda reklam yayınlamasını engeller. Reklam kategorileri ise, ürün veya hizmet türüne dayalı olarak reklamverenleri toplu olarak hariç tutmanızı sağlar."
            }
        },
        "_buttons": {
        "_submit": {
          "buttonText": "Gönder",
          "ariaLabel": "Cevabınızı göndermek için buraya tıklayın."
        },
        "_reset": {
          "buttonText": "Sıfırla",
          "ariaLabel": ""
        },
        "_showCorrectAnswer": {
          "buttonText": "Doğru Cevap",
          "ariaLabel": ""
        },
        "_hideCorrectAnswer": {
          "buttonText": "Benim Cevabım",
          "ariaLabel": ""
        },
        "_showFeedback": {
          "buttonText": "Geribildirimi göster",
          "ariaLabel": ""
        },
            "remainingAttemptsText": "deneme kaldı",
            "remainingAttemptText": "son deneme"
        },
        "_pageLevelProgress": {
            "_isEnabled": true
        }
    },
    {
    "_id":"c-661",
        "_parentId":"b-66",
      "_type":"component",
      "_component":"mcq",
      "_classes":"",
      "_layout":"full",
      "_attempts":1,
      "_shouldDisplayAttempts": false,
      "_questionWeight":1,
      "_setCompletionOn":"inview",
      "_isRandom":false,
      "_selectable":3,
      "title": "Soru 4/4",
      "displayTitle": "Soru 4/4",
      "body": "Audience Network platforma özel reklamlarını yayınlamadan önce uygulamanızın şu koşulları karşılaması gerekir: (üç seçim yapın)",
      "instruction": "",
      "_items": [
            {
              "text": "Değerlendirmeyi geçmelidir",
              "_shouldBeSelected":true
            },
            {
              "text": "Bir reklam alanı oluşturmalıdır",
              "_shouldBeSelected":true
            },
            {
              "text": "iTunes uygulama mağazasından veya Google Play’den indirilebilir olmalıdır",
              "_shouldBeSelected":true
              },
            {
              "text": "Zaten reklam bandı veya ara reklam yayınlıyor olmalıdır",
              "_shouldBeSelected":false
            }
        ],
        "_feedback":{
            "correct":"Tebrikler, cevabınız doğru! Platforma özel reklamlar yayınlamak için reklam bandı veya ara reklamlar yayınlamak gerekmez. Üç formatın hepsi isteğe bağlıdır ve tüm Audience Network yayıncılarının kullanımına açıktır.",
            "_incorrect": {
              "notFinal": "",
              "final": "Üzgünüz, yanlış cevap. Platforma özel reklamlar yayınlamak için reklam bandı veya ara reklamlar yayınlamak gerekmez. Üç formatın hepsi isteğe bağlıdır ve tüm Audience Network yayıncılarının kullanımına açıktır."
            },
            "_partlyCorrect": {
              "notFinal": "",
              "final": "Üzgünüz, tam olarak doğru değil. Platforma özel reklamlar yayınlamak için reklam bandı veya ara reklamlar yayınlamak gerekmez. Üç formatın hepsi isteğe bağlıdır ve tüm Audience Network yayıncılarının kullanımına açıktır."
            }
        },
        "_buttons": {
        "_submit": {
          "buttonText": "Gönder",
          "ariaLabel": "Cevabınızı göndermek için buraya tıklayın."
        },
        "_reset": {
          "buttonText": "Sıfırla",
          "ariaLabel": ""
        },
        "_showCorrectAnswer": {
          "buttonText": "Doğru Cevap",
          "ariaLabel": ""
        },
        "_hideCorrectAnswer": {
          "buttonText": "Benim Cevabım",
          "ariaLabel": ""
        },
        "_showFeedback": {
          "buttonText": "Geribildirimi göster",
          "ariaLabel": ""
        },
            "remainingAttemptsText": "deneme kaldı",
            "remainingAttemptText": "son deneme"
        },
        "_pageLevelProgress": {
            "_isEnabled": true
        }
    },
    {
        "_id":"c-691",
        "_parentId":"b-69",
        "_type":"component",
        "_component":"co-jump",
        "_classes":"color-test",
        "_autoComplete":true,
        "_preLinkBody":"Bu kursu bitirmek için aşağıdaki düğmeye tıklayın. Not: Tüm modüller için durum çubuklarının tamamlandığından emin olmak için <a href='#'>buraya tıklayın</a>.<br>",
        "_linkBody":"<div style = 'text-align:center;padding:8px;'><button class='buttons-action'><b>BU KURSU BİTİRDİM</b></button></div><br> ",
        "_postLinkBody":"",
        "_link":"",
        "_pageLevelProgress": {
            "_isEnabled": false
        }
    }

    
]
